Gender - wellbeing codes
…
value for "which" not specified, defaulting to c("rows", "cols")

── Column specification ────────────────────────────────────────────────────────
cols(
  Question = col_character(),
  Country = col_character(),
  HWD = col_character(),
  Gender = col_character(),
  Code_Counts = col_double()
)

data_original

# A tibble: 288 × 5
   question                country        hwd     gender code_counts
   <chr>                   <chr>          <chr>   <chr>        <dbl>
 1 mgmt_community_benefits Fiji           Culture Male            12
 2 mgmt_community_benefits Indonesia      Culture Male             1
 3 mgmt_community_benefits Kenya          Culture Male             0
 4 mgmt_community_benefits Madagascar     Culture Male             0
 5 mgmt_community_benefits PNG            Culture Male             1
 6 mgmt_community_benefits SolomonIslands Culture Male             3
 7 mgmt_community_benefits Fiji           Culture Female          13
 8 mgmt_community_benefits Indonesia      Culture Female           1
 9 mgmt_community_benefits Kenya          Culture Female           1
10 mgmt_community_benefits Madagascar     Culture Female           0
# … with 278 more rows
…
